{
	"1": {
		"timestamp": 1234,
		"transactions": {

			"0": {
				"IPO": "0",
				"assetInfo": {
					"actors": " ",
					"audio": " ",
					"desc": " ",
					"directed": " ",
					"duration": " ",
					"genre": " ",
					"movieRating": " ",
					"studio": " ",
					"subtitleCodec": " ",
					"subtitleDisplayTitle": " ",
					"subtitleLanguage": " ",
					"subtitles": " ",
					"title": " ",
					"trackingHash": "ffc50fb39be478da59fd655e3f1467f1ccce672e8faa8b935d786d572b655921",
					"written": " "
				},
				"metadata": {
					"aspect_ratio": 2.352941,
					"audio_bitrate": 93374,
					"audio_codec_name": "aac",
					"audio_codec_type": "audio",
					"audio_profile": "LC",
					"bit_depth": 8,
					"channel_layout": "stereo",
					"channels": 2,
					"container": "isom",
					"dimension": "1920x816",
					"duration": 10267255000,
					"sampling_rate": 48000,
					"streams": 2,
					"video_bitrate": 2000145,
					"video_codec_name": "h264",
					"video_codec_type": "video",
					"video_frame_rate": 24,
					"video_profile": "High",
					"video_resolution": "yuv420p"
				},
				"paymentHash": "0",
				"price": 10.0,
				"type": 2
			}

		}
	}
}